{
  "project_info": {
    "project_number": "511736967930",
    "project_id": "todo1-be837",
    "storage_bucket": "todo1-be837.appspot.com"
  },
  "client": [
    {
      "client_info": {
        "mobilesdk_app_id": "1:511736967930:android:5d27595f0e4c406f4a8f43",
        "android_client_info": {
          "package_name": "com.example.pruebas"
        }
      },
      "oauth_client": [
        {
          "client_id": "511736967930-nd509qb3ohjtttl16dae7hpnnjhg6cd7.apps.googleusercontent.com",
          "client_type": 3
        }
      ],
      "api_key": [
        {
          "current_key": "AIzaSyCLP72P5_vSL19w0LyByQPyh570Avxqn_4"
        }
      ],
      "services": {
        "appinvite_service": {
          "other_platform_oauth_client": [
            {
              "client_id": "511736967930-nd509qb3ohjtttl16dae7hpnnjhg6cd7.apps.googleusercontent.com",
              "client_type": 3
            }
          ]
        }
      }
    }
  ],
  "configuration_version": "1"
}